<svg width="12" height="7" viewBox="0 0 12 7" fill="none" xmlns="http://www.w3.org/2000/svg">
<path d="M10.6667 1.0918L6.02457 5.73391L1.38246 1.0918" stroke="#3914AF" stroke-width="2" stroke-linecap="round" stroke-linejoin="round"/>
</svg>
